module gitlab.com/gitlab-com/runbooks/pingdom

go 1.15

require (
	github.com/russellcardullo/go-pingdom v0.0.0-20190223184354-017c8281f6d1
	github.com/stretchr/objx v0.2.0 // indirect
	gopkg.in/check.v1 v1.0.0-20180628173108-788fd7840127 // indirect
	gopkg.in/yaml.v2 v2.2.2
)
